VERSION 5
BEGIN SYMBOL clkdiv
SYMBOLTYPE BLOCK
TIMESTAMP 2009 11 12 15 8 11
SYMPIN 0 -160 Input clk
SYMPIN 384 -160 Output clk_fast
SYMPIN 384 -96 Output clk_slow
SYMPIN 384 -32 Output clk_disp
BEGIN DISPLAY 192 -200 ATTR SymbolName
    ALIGNMENT BCENTER
    FONT 56 "Arial"
END DISPLAY
BEGIN DISPLAY 72 -160 PIN clk ATTR PinName
    FONT 24 "Arial"
END DISPLAY
BEGIN DISPLAY 312 -160 PIN clk_fast ATTR PinName
    ALIGNMENT RIGHT
    FONT 24 "Arial"
END DISPLAY
BEGIN DISPLAY 312 -96 PIN clk_slow ATTR PinName
    ALIGNMENT RIGHT
    FONT 24 "Arial"
END DISPLAY
BEGIN DISPLAY 312 -32 PIN clk_disp ATTR PinName
    ALIGNMENT RIGHT
    FONT 24 "Arial"
END DISPLAY
RECTANGLE N 64 -192 320 0 
LINE N 64 -160 0 -160 
LINE N 320 -160 384 -160 
LINE N 320 -96 384 -96 
LINE N 320 -32 384 -32 
END SYMBOL
