VERSION 5
BEGIN SYMBOL 
SYMBOLTYPE BLOCK
TIMESTAMP 2014 5 14 0 40 25
SYMPIN 0 -352 Input CLK
SYMPIN 0 -256 Input A(3:0)
SYMPIN 0 -160 Input BUTN
SYMPIN 0 -64 Input B(3:0)
SYMPIN 384 -352 Output R(3:0)
SYMPIN 384 -288 Output Q(3:0)
SYMPIN 384 -224 Output OK
SYMPIN 384 -96 Output LED(3:0)
SYMPIN 384 -32 Output DIV_0
BEGIN DISPLAY 192 -392 ATTR SymbolName
    ALIGNMENT BCENTER
    FONT 56 "Arial"
END DISPLAY
BEGIN DISPLAY 72 -352 PIN CLK ATTR PinName
    FONT 24 "Arial"
END DISPLAY
BEGIN DISPLAY 72 -256 PIN A(3:0) ATTR PinName
    FONT 24 "Arial"
END DISPLAY
BEGIN DISPLAY 72 -160 PIN BUTN ATTR PinName
    FONT 24 "Arial"
END DISPLAY
BEGIN DISPLAY 72 -64 PIN B(3:0) ATTR PinName
    FONT 24 "Arial"
END DISPLAY
BEGIN DISPLAY 312 -352 PIN R(3:0) ATTR PinName
    ALIGNMENT RIGHT
    FONT 24 "Arial"
END DISPLAY
BEGIN DISPLAY 312 -288 PIN Q(3:0) ATTR PinName
    ALIGNMENT RIGHT
    FONT 24 "Arial"
END DISPLAY
BEGIN DISPLAY 312 -224 PIN OK ATTR PinName
    ALIGNMENT RIGHT
    FONT 24 "Arial"
END DISPLAY
BEGIN DISPLAY 312 -96 PIN LED(3:0) ATTR PinName
    ALIGNMENT RIGHT
    FONT 24 "Arial"
END DISPLAY
BEGIN DISPLAY 312 -32 PIN DIV_0 ATTR PinName
    ALIGNMENT RIGHT
    FONT 24 "Arial"
END DISPLAY
RECTANGLE N 64 -384 320 0 
LINE N 64 -352 0 -352 
RECTANGLE N 0 -268 64 -244 
LINE N 64 -256 0 -256 
LINE N 64 -160 0 -160 
RECTANGLE N 0 -76 64 -52 
LINE N 64 -64 0 -64 
RECTANGLE N 320 -364 384 -340 
LINE N 320 -352 384 -352 
RECTANGLE N 320 -300 384 -276 
LINE N 320 -288 384 -288 
LINE N 320 -224 384 -224 
RECTANGLE N 320 -108 384 -84 
LINE N 320 -96 384 -96 
LINE N 320 -32 384 -32 
END SYMBOL
