VERSION 5
BEGIN SYMBOL 
SYMBOLTYPE BLOCK
TIMESTAMP 2014 5 28 12 38 56
SYMPIN 0 -160 Input BUTTN
SYMPIN 0 -32 Input CLK
SYMPIN 384 -96 Output Px
BEGIN DISPLAY 192 -200 ATTR SymbolName
    ALIGNMENT BCENTER
    FONT 56 "Arial"
END DISPLAY
BEGIN DISPLAY 72 -160 PIN BUTTN ATTR PinName
    FONT 24 "Arial"
END DISPLAY
BEGIN DISPLAY 72 -32 PIN CLK ATTR PinName
    FONT 24 "Arial"
END DISPLAY
BEGIN DISPLAY 312 -96 PIN Px ATTR PinName
    ALIGNMENT RIGHT
    FONT 24 "Arial"
END DISPLAY
RECTANGLE N 64 -192 320 0 
LINE N 64 -160 0 -160 
LINE N 64 -32 0 -32 
LINE N 320 -96 384 -96 
END SYMBOL
