<?xml version="1.0" encoding="UTF-8" standalone="no"?>
<!-- Created with Inkscape (http://www.inkscape.org/) -->

<svg
   xmlns:dc="http://purl.org/dc/elements/1.1/"
   xmlns:cc="http://creativecommons.org/ns#"
   xmlns:rdf="http://www.w3.org/1999/02/22-rdf-syntax-ns#"
   xmlns:svg="http://www.w3.org/2000/svg"
   xmlns="http://www.w3.org/2000/svg"
   xmlns:sodipodi="http://sodipodi.sourceforge.net/DTD/sodipodi-0.dtd"
   xmlns:inkscape="http://www.inkscape.org/namespaces/inkscape"
   width="744.09448819"
   height="1052.3622047"
   id="svg2"
   version="1.1"
   inkscape:version="0.48.4 r9939"
   sodipodi:docname="flow.svg">
  <defs
     id="defs4" />
  <sodipodi:namedview
     id="base"
     pagecolor="#ffffff"
     bordercolor="#666666"
     borderopacity="1.0"
     inkscape:pageopacity="0.0"
     inkscape:pageshadow="2"
     inkscape:zoom="1.979899"
     inkscape:cx="416.58187"
     inkscape:cy="387.62411"
     inkscape:document-units="px"
     inkscape:current-layer="layer1"
     showgrid="true"
     inkscape:snap-grids="true"
     inkscape:snap-to-guides="false"
     inkscape:window-width="1600"
     inkscape:window-height="823"
     inkscape:window-x="-9"
     inkscape:window-y="-9"
     inkscape:window-maximized="1">
    <inkscape:grid
       type="xygrid"
       id="grid2989" />
  </sodipodi:namedview>
  <metadata
     id="metadata7">
    <rdf:RDF>
      <cc:Work
         rdf:about="">
        <dc:format>image/svg+xml</dc:format>
        <dc:type
           rdf:resource="http://purl.org/dc/dcmitype/StillImage" />
        <dc:title />
      </cc:Work>
    </rdf:RDF>
  </metadata>
  <g
     inkscape:label="Layer 1"
     inkscape:groupmode="layer"
     id="layer1">
    <rect
       style="fill:#ffffff;fill-opacity:1;stroke:#000000;stroke-width:0.77450818;stroke-linejoin:round;stroke-miterlimit:4;stroke-opacity:1;stroke-dasharray:none;stroke-dashoffset:0"
       id="rect2987"
       width="81.681328"
       height="27.986429"
       x="18.108683"
       y="20.470865" />
    <rect
       style="fill:#ffffff;fill-opacity:1;stroke:#000000;stroke-width:0.92772382;stroke-linejoin:round;stroke-miterlimit:4;stroke-opacity:1;stroke-dasharray:none;stroke-dashoffset:0"
       id="rect2991"
       width="43.657593"
       height="43.657593"
       x="-96.629372"
       y="118.41973"
       transform="matrix(0.91810864,-0.39632882,0.91810864,0.39632882,0,0)" />
    <flowRoot
       xml:space="preserve"
       id="flowRoot2993"
       style="font-size:32px;font-style:normal;font-variant:normal;font-weight:normal;font-stretch:normal;line-height:125%;letter-spacing:0px;word-spacing:0px;fill:#000000;fill-opacity:1;stroke:none;font-family:Impact;-inkscape-font-specification:Impact"
       transform="matrix(0.45559303,0,0,0.45559303,9.6476691,10.933658)"><flowRegion
         id="flowRegion2995"><rect
           id="rect2997"
           width="158.57143"
           height="41.42857"
           x="30.714285"
           y="31.647896" /></flowRegion><flowPara
         id="flowPara2999"
         style="font-style:normal;font-variant:normal;font-weight:normal;font-stretch:normal;text-align:center;text-anchor:middle;font-family:Cambria Math;-inkscape-font-specification:Cambria Math">Config</flowPara></flowRoot>    <flowRoot
       xml:space="preserve"
       id="flowRoot2993-1"
       style="font-size:32px;font-style:normal;font-variant:normal;font-weight:normal;font-stretch:normal;line-height:125%;letter-spacing:0px;word-spacing:0px;fill:#000000;fill-opacity:1;stroke:none;font-family:Impact;-inkscape-font-specification:Impact"
       transform="matrix(0.45559303,0,0,0.45559303,9.6476691,10.933658)"><flowRegion
         id="flowRegion2995-7"><rect
           id="rect2997-4"
           width="158.57143"
           height="41.42857"
           x="30.714285"
           y="31.647896" /></flowRegion><flowPara
         id="flowPara2999-0"
         style="font-style:normal;font-variant:normal;font-weight:normal;font-stretch:normal;text-align:center;text-anchor:middle;font-family:Cambria Math;-inkscape-font-specification:Cambria Math">Config</flowPara></flowRoot>    <flowRoot
       transform="matrix(0.45559303,0,0,0.45559303,9.6476691,64.670304)"
       xml:space="preserve"
       id="flowRoot2993-1-9"
       style="font-size:24px;font-style:normal;font-variant:normal;font-weight:normal;font-stretch:normal;line-height:125%;letter-spacing:0px;word-spacing:0px;fill:#000000;fill-opacity:1;stroke:none;font-family:Impact;-inkscape-font-specification:Impact"><flowRegion
         id="flowRegion2995-7-4"><rect
           id="rect2997-4-8"
           width="158.57143"
           height="41.42857"
           x="30.714285"
           y="31.647896"
           style="font-size:24px" /></flowRegion><flowPara
         id="flowPara2999-0-8"
         style="font-size:24px;font-style:normal;font-variant:normal;font-weight:normal;font-stretch:normal;text-align:center;text-anchor:middle;font-family:Cambria Math;-inkscape-font-specification:Cambria Math">Mode_Sel</flowPara></flowRoot>    <path
       sodipodi:type="arc"
       style="fill:#ffffff;fill-opacity:1;stroke:#000000;stroke-width:1.70000005;stroke-linejoin:round;stroke-miterlimit:4;stroke-opacity:1;stroke-dasharray:none;stroke-dashoffset:0"
       id="path3057"
       sodipodi:cx="83.214287"
       sodipodi:cy="267.71933"
       sodipodi:rx="33.92857"
       sodipodi:ry="31.785715"
       d="m 117.14286,267.71933 a 33.92857,31.785715 0 1 1 -67.857143,0 33.92857,31.785715 0 1 1 67.857143,0 z"
       transform="matrix(0.45559303,0,0,0.45559303,9.6476691,10.933658)" />
    <text
       xml:space="preserve"
       style="font-size:14.57897663px;font-style:normal;font-variant:normal;font-weight:normal;font-stretch:normal;line-height:125%;letter-spacing:0px;word-spacing:0px;fill:#000000;fill-opacity:1;stroke:none;font-family:Impact;-inkscape-font-specification:Impact"
       x="43.166302"
       y="137.94879"
       id="text3059"
       sodipodi:linespacing="125%"><tspan
         sodipodi:role="line"
         id="tspan3061"
         x="43.166302"
         y="137.94879"
         style="font-style:normal;font-variant:normal;font-weight:normal;font-stretch:normal;font-family:Cambria Math;-inkscape-font-specification:Cambria Math">1</tspan></text>
    <rect
       style="fill:#ffffff;fill-opacity:1;stroke:#000000;stroke-width:0.77450818;stroke-linejoin:round;stroke-miterlimit:4;stroke-opacity:1;stroke-dasharray:none;stroke-dashoffset:0"
       id="rect2987-2"
       width="81.681328"
       height="27.986429"
       x="140.66013"
       y="243.57686" />
    <flowRoot
       xml:space="preserve"
       id="flowRoot2993-4"
       style="font-size:32px;font-style:normal;font-variant:normal;font-weight:normal;font-stretch:normal;line-height:125%;letter-spacing:0px;word-spacing:0px;fill:#000000;fill-opacity:1;stroke:none;font-family:Impact;-inkscape-font-specification:Impact"
       transform="matrix(0.45559303,0,0,0.45559303,132.19912,234.03966)"><flowRegion
         id="flowRegion2995-5"><rect
           id="rect2997-5"
           width="158.57143"
           height="41.42857"
           x="30.714285"
           y="31.647896" /></flowRegion><flowPara
         id="flowPara2999-1"
         style="font-style:normal;font-variant:normal;font-weight:normal;font-stretch:normal;text-align:center;text-anchor:middle;font-family:Cambria Math;-inkscape-font-specification:Cambria Math">Config</flowPara></flowRoot>    <rect
       style="fill:#ffffff;fill-opacity:1;stroke:#000000;stroke-width:0.92772382;stroke-linejoin:round;stroke-miterlimit:4;stroke-opacity:1;stroke-dasharray:none;stroke-dashoffset:0"
       id="rect2991-2"
       width="43.657593"
       height="43.657593"
       x="-311.92319"
       y="465.40536"
       transform="matrix(0.91810864,-0.39632882,0.91810864,0.39632882,0,0)" />
    <flowRoot
       transform="matrix(0.45559303,0,0,0.45559303,130.55507,287.51785)"
       xml:space="preserve"
       id="flowRoot2993-1-9-7"
       style="font-size:24px;font-style:normal;font-variant:normal;font-weight:normal;font-stretch:normal;line-height:125%;letter-spacing:0px;word-spacing:0px;fill:#000000;fill-opacity:1;stroke:none;font-family:Impact;-inkscape-font-specification:Impact"><flowRegion
         id="flowRegion2995-7-4-6"><rect
           id="rect2997-4-8-1"
           width="158.57143"
           height="41.42857"
           x="30.714285"
           y="31.647896"
           style="font-size:24px" /></flowRegion><flowPara
         id="flowPara2999-0-8-4"
         style="font-size:24px;font-style:normal;font-variant:normal;font-weight:normal;font-stretch:normal;text-align:center;text-anchor:middle;font-family:Cambria Math;-inkscape-font-specification:Cambria Math">Increment</flowPara></flowRoot>    <rect
       style="fill:#ffffff;fill-opacity:1;stroke:#000000;stroke-width:0.92772382;stroke-linejoin:round;stroke-miterlimit:4;stroke-opacity:1;stroke-dasharray:none;stroke-dashoffset:0"
       id="rect2991-23"
       width="43.657593"
       height="43.657593"
       x="-379.4657"
       y="532.94788"
       transform="matrix(0.91810864,-0.39632882,0.91810864,0.39632882,0,0)" />
    <flowRoot
       transform="matrix(0.45559303,0,0,0.45559303,130.55506,341.05593)"
       xml:space="preserve"
       id="flowRoot2993-1-9-2"
       style="font-size:24px;font-style:normal;font-variant:normal;font-weight:normal;font-stretch:normal;line-height:125%;letter-spacing:0px;word-spacing:0px;fill:#000000;fill-opacity:1;stroke:none;font-family:Impact;-inkscape-font-specification:Impact"><flowRegion
         id="flowRegion2995-7-4-2"><rect
           id="rect2997-4-8-16"
           width="158.57143"
           height="41.42857"
           x="30.714285"
           y="31.647896"
           style="font-size:24px" /></flowRegion><flowPara
         id="flowPara2999-0-8-8"
         style="font-size:24px;font-style:normal;font-variant:normal;font-weight:normal;font-stretch:normal;text-align:center;text-anchor:middle;font-family:Cambria Math;-inkscape-font-specification:Cambria Math">Decrement</flowPara></flowRoot>    <rect
       style="fill:#ffffff;fill-opacity:1;stroke:#000000;stroke-width:0.77450818;stroke-linejoin:round;stroke-miterlimit:4;stroke-opacity:1;stroke-dasharray:none;stroke-dashoffset:0"
       id="rect2987-2-5"
       width="81.681328"
       height="27.986429"
       x="31.563681"
       y="294.58954" />
    <flowRoot
       xml:space="preserve"
       id="flowRoot2993-4-7"
       style="font-size:32px;font-style:normal;font-variant:normal;font-weight:normal;font-stretch:normal;line-height:125%;letter-spacing:0px;word-spacing:0px;fill:#000000;fill-opacity:1;stroke:none;font-family:Impact;-inkscape-font-specification:Impact"
       transform="matrix(0.45559303,0,0,0.45559303,23.102648,285.05237)"><flowRegion
         id="flowRegion2995-5-6"><rect
           id="rect2997-5-1"
           width="158.57143"
           height="41.42857"
           x="30.714285"
           y="31.647896" /></flowRegion><flowPara
         id="flowPara2999-1-8"
         style="font-style:normal;font-variant:normal;font-weight:normal;font-stretch:normal;text-align:center;text-anchor:middle;font-family:Cambria Math;-inkscape-font-specification:Cambria Math">Plus</flowPara></flowRoot>    <rect
       style="fill:#ffffff;fill-opacity:1;stroke:#000000;stroke-width:0.77450818;stroke-linejoin:round;stroke-miterlimit:4;stroke-opacity:1;stroke-dasharray:none;stroke-dashoffset:0"
       id="rect2987-2-54"
       width="81.681328"
       height="27.986429"
       x="250.26166"
       y="348.12766" />
    <flowRoot
       xml:space="preserve"
       id="flowRoot2993-4-3"
       style="font-size:32px;font-style:normal;font-variant:normal;font-weight:normal;font-stretch:normal;line-height:125%;letter-spacing:0px;word-spacing:0px;fill:#000000;fill-opacity:1;stroke:none;font-family:Impact;-inkscape-font-specification:Impact"
       transform="matrix(0.45559303,0,0,0.45559303,241.80067,338.59045)"><flowRegion
         id="flowRegion2995-5-1"><rect
           id="rect2997-5-2"
           width="158.57143"
           height="41.42857"
           x="30.714285"
           y="31.647896" /></flowRegion><flowPara
         id="flowPara2999-1-3"
         style="font-style:normal;font-variant:normal;font-weight:normal;font-stretch:normal;text-align:center;text-anchor:middle;font-family:Cambria Math;-inkscape-font-specification:Cambria Math">Minus</flowPara></flowRoot>    <rect
       style="fill:#ffffff;fill-opacity:1;stroke:#000000;stroke-width:0.77450818;stroke-linejoin:round;stroke-miterlimit:4;stroke-opacity:1;stroke-dasharray:none;stroke-dashoffset:0"
       id="rect2987-2-3"
       width="81.681328"
       height="27.986429"
       x="140.66013"
       y="403.68604" />
    <flowRoot
       xml:space="preserve"
       id="flowRoot2993-4-8"
       style="font-size:32px;font-style:normal;font-variant:normal;font-weight:normal;font-stretch:normal;line-height:125%;letter-spacing:0px;word-spacing:0px;fill:#000000;fill-opacity:1;stroke:none;font-family:Impact;-inkscape-font-specification:Impact"
       transform="matrix(0.45559303,0,0,0.45559303,132.19912,394.14885)"><flowRegion
         id="flowRegion2995-5-7"><rect
           id="rect2997-5-4"
           width="158.57143"
           height="41.42857"
           x="30.714285"
           y="31.647896" /></flowRegion><flowPara
         id="flowPara2999-1-2"
         style="font-style:normal;font-variant:normal;font-weight:normal;font-stretch:normal;text-align:center;text-anchor:middle;font-family:Cambria Math;-inkscape-font-specification:Cambria Math">C</flowPara></flowRoot>    <flowRoot
       xml:space="preserve"
       id="flowRoot2993-1-7-7"
       style="font-size:32px;font-style:normal;font-variant:normal;font-weight:normal;font-stretch:normal;line-height:125%;letter-spacing:0px;word-spacing:0px;fill:#000000;fill-opacity:1;stroke:none;font-family:Impact;-inkscape-font-specification:Impact"
       transform="matrix(0.45559303,0,0,0.45559303,235.05626,314.14885)"><flowRegion
         id="flowRegion2995-7-1-7"><rect
           id="rect2997-4-1-9"
           width="158.57143"
           height="41.42857"
           x="30.714285"
           y="31.647896" /></flowRegion><flowPara
         id="flowPara2999-0-5-3"
         style="font-style:normal;font-variant:normal;font-weight:normal;font-stretch:normal;text-align:center;text-anchor:middle;font-family:Cambria Math;-inkscape-font-specification:Cambria Math" /><flowPara
         style="font-style:normal;font-variant:normal;font-weight:normal;font-stretch:normal;text-align:center;text-anchor:middle;font-family:Cambria Math;-inkscape-font-specification:Cambria Math"
         id="flowPara3268" /></flowRoot>    <rect
       style="fill:#ffffff;fill-opacity:1;stroke:#000000;stroke-width:0.92772382;stroke-linejoin:round;stroke-miterlimit:4;stroke-opacity:1;stroke-dasharray:none;stroke-dashoffset:0"
       id="rect2991-23-1"
       width="43.657593"
       height="43.657593"
       x="-508.99011"
       y="664.67279"
       transform="matrix(0.91810864,-0.39632882,0.91810864,0.39632882,0,0)" />
    <flowRoot
       transform="matrix(0.45559303,0,0,0.45559303,132.57536,444.59657)"
       xml:space="preserve"
       id="flowRoot2993-1-9-2-9"
       style="font-size:24px;font-style:normal;font-variant:normal;font-weight:normal;font-stretch:normal;line-height:125%;letter-spacing:0px;word-spacing:0px;fill:#000000;fill-opacity:1;stroke:none;font-family:Impact;-inkscape-font-specification:Impact"><flowRegion
         id="flowRegion2995-7-4-2-8"><rect
           id="rect2997-4-8-16-6"
           width="158.57143"
           height="41.42857"
           x="30.714285"
           y="31.647896"
           style="font-size:24px" /></flowRegion><flowPara
         id="flowPara2999-0-8-8-5"
         style="font-size:24px;font-style:normal;font-variant:normal;font-weight:normal;font-stretch:normal;text-align:center;text-anchor:middle;font-family:Cambria Math;-inkscape-font-specification:Cambria Math">Mode_Sel</flowPara></flowRoot>    <flowRoot
       xml:space="preserve"
       id="flowRoot3270"
       style="fill:black;stroke:none;stroke-opacity:1;stroke-width:1px;stroke-linejoin:miter;stroke-linecap:butt;fill-opacity:1;font-family:Impact;font-style:normal;font-weight:normal;font-size:32px;line-height:125%;letter-spacing:0px;word-spacing:0px;-inkscape-font-specification:Impact;font-stretch:normal;font-variant:normal"><flowRegion
         id="flowRegion3272"><rect
           id="rect3274"
           width="106.57109"
           height="46.467018"
           x="232.84016"
           y="150.80104" /></flowRegion><flowPara
         id="flowPara3276" /></flowRoot>    <rect
       style="fill:#ffffff;fill-opacity:1;stroke:#000000;stroke-width:0.77450818;stroke-linejoin:round;stroke-miterlimit:4;stroke-opacity:1;stroke-dasharray:none;stroke-dashoffset:0"
       id="rect2987-2-0"
       width="81.681328"
       height="27.986429"
       x="219.56332"
       y="569.57153" />
    <flowRoot
       xml:space="preserve"
       id="flowRoot2993-4-2"
       style="font-size:32px;font-style:normal;font-variant:normal;font-weight:normal;font-stretch:normal;line-height:125%;letter-spacing:0px;word-spacing:0px;fill:#000000;fill-opacity:1;stroke:none;font-family:Impact;-inkscape-font-specification:Impact"
       transform="matrix(0.45559303,0,0,0.45559303,211.10231,560.03432)"><flowRegion
         id="flowRegion2995-5-8"><rect
           id="rect2997-5-6"
           width="158.57143"
           height="41.42857"
           x="30.714285"
           y="31.647896" /></flowRegion><flowPara
         id="flowPara2999-1-0"
         style="font-style:normal;font-variant:normal;font-weight:normal;font-stretch:normal;text-align:center;text-anchor:middle;font-family:Cambria Math;-inkscape-font-specification:Cambria Math">Count</flowPara></flowRoot>    <rect
       style="fill:#ffffff;fill-opacity:1;stroke:#000000;stroke-width:0.92772382;stroke-linejoin:round;stroke-miterlimit:4;stroke-opacity:1;stroke-dasharray:none;stroke-dashoffset:0"
       id="rect2991-23-1-2"
       width="43.657593"
       height="43.657593"
       x="-678.74353"
       y="919.26569"
       transform="matrix(0.91810864,-0.39632882,0.91810864,0.39632882,0,0)" />
    <flowRoot
       transform="matrix(0.45559303,0,0,0.45559303,210.46718,612.77723)"
       xml:space="preserve"
       id="flowRoot2993-1-9-2-9-4"
       style="font-size:24px;font-style:normal;font-variant:normal;font-weight:normal;font-stretch:normal;line-height:125%;letter-spacing:0px;word-spacing:0px;fill:#000000;fill-opacity:1;stroke:none;font-family:Impact;-inkscape-font-specification:Impact"><flowRegion
         id="flowRegion2995-7-4-2-8-8"><rect
           id="rect2997-4-8-16-6-6"
           width="158.57143"
           height="41.42857"
           x="30.714285"
           y="31.647896"
           style="font-size:24px" /></flowRegion><flowPara
         id="flowPara2999-0-8-8-5-5"
         style="font-size:24px;font-style:normal;font-variant:normal;font-weight:normal;font-stretch:normal;text-align:center;text-anchor:middle;font-family:Cambria Math;-inkscape-font-specification:Cambria Math">Mode_Sel</flowPara></flowRoot>    <rect
       style="fill:#ffffff;fill-opacity:1;stroke:#000000;stroke-width:0.92772382;stroke-linejoin:round;stroke-miterlimit:4;stroke-opacity:1;stroke-dasharray:none;stroke-dashoffset:0"
       id="rect2991-23-1-0"
       width="43.657593"
       height="43.657593"
       x="-744.66425"
       y="985.18774"
       transform="matrix(0.91810864,-0.39632882,0.91810864,0.39632882,0,0)" />
    <flowRoot
       transform="matrix(0.45559303,0,0,0.45559303,210.4684,665.03029)"
       xml:space="preserve"
       id="flowRoot2993-1-9-2-9-9"
       style="font-size:24px;font-style:normal;font-variant:normal;font-weight:normal;font-stretch:normal;line-height:125%;letter-spacing:0px;word-spacing:0px;fill:#000000;fill-opacity:1;stroke:none;font-family:Impact;-inkscape-font-specification:Impact"><flowRegion
         id="flowRegion2995-7-4-2-8-0"><rect
           id="rect2997-4-8-16-6-0"
           width="158.57143"
           height="41.42857"
           x="30.714285"
           y="31.647896"
           style="font-size:24px" /></flowRegion><flowPara
         id="flowPara2999-0-8-8-5-6"
         style="font-size:24px;font-style:normal;font-variant:normal;font-weight:normal;font-stretch:normal;text-align:center;text-anchor:middle;font-family:Cambria Math;-inkscape-font-specification:Cambria Math">Expired</flowPara></flowRoot>    <rect
       style="fill:#ffffff;fill-opacity:1;stroke:#000000;stroke-width:0.77450818;stroke-linejoin:round;stroke-miterlimit:4;stroke-opacity:1;stroke-dasharray:none;stroke-dashoffset:0"
       id="rect2987-2-0-1"
       width="81.681328"
       height="27.986429"
       x="219.56332"
       y="724.62994" />
    <flowRoot
       xml:space="preserve"
       id="flowRoot2993-4-2-3"
       style="font-size:32px;font-style:normal;font-variant:normal;font-weight:normal;font-stretch:normal;line-height:125%;letter-spacing:0px;word-spacing:0px;fill:#000000;fill-opacity:1;stroke:none;font-family:Impact;-inkscape-font-specification:Impact"
       transform="matrix(0.45559303,0,0,0.45559303,211.10231,715.09275)"><flowRegion
         id="flowRegion2995-5-8-8"><rect
           id="rect2997-5-6-9"
           width="158.57143"
           height="41.42857"
           x="30.714285"
           y="31.647896" /></flowRegion><flowPara
         id="flowPara2999-1-0-3"
         style="font-style:normal;font-variant:normal;font-weight:normal;font-stretch:normal;text-align:center;text-anchor:middle;font-family:Cambria Math;-inkscape-font-specification:Cambria Math">A</flowPara></flowRoot>    <rect
       style="fill:#ffffff;fill-opacity:1;stroke:#000000;stroke-width:0.77450818;stroke-linejoin:round;stroke-miterlimit:4;stroke-opacity:1;stroke-dasharray:none;stroke-dashoffset:0"
       id="rect2987-2-0-4"
       width="81.681328"
       height="27.986429"
       x="73.596275"
       y="621.08929" />
    <flowRoot
       xml:space="preserve"
       id="flowRoot2993-4-2-4"
       style="font-size:32px;font-style:normal;font-variant:normal;font-weight:normal;font-stretch:normal;line-height:125%;letter-spacing:0px;word-spacing:0px;fill:#000000;fill-opacity:1;stroke:none;font-family:Impact;-inkscape-font-specification:Impact"
       transform="matrix(0.45559303,0,0,0.45559303,65.135266,611.55212)"><flowRegion
         id="flowRegion2995-5-8-6"><rect
           id="rect2997-5-6-0"
           width="158.57143"
           height="41.42857"
           x="30.714285"
           y="31.647896" /></flowRegion><flowPara
         id="flowPara2999-1-0-6"
         style="font-style:normal;font-variant:normal;font-weight:normal;font-stretch:normal;text-align:center;text-anchor:middle;font-family:Cambria Math;-inkscape-font-specification:Cambria Math">Expired</flowPara></flowRoot>    <rect
       style="fill:#ffffff;fill-opacity:1;stroke:#000000;stroke-width:0.92772382;stroke-linejoin:round;stroke-miterlimit:4;stroke-opacity:1;stroke-dasharray:none;stroke-dashoffset:0"
       id="rect2991-23-1-2-6"
       width="43.657593"
       height="43.657593"
       x="-873.73901"
       y="1112.6113"
       transform="matrix(0.91810864,-0.39632882,0.91810864,0.39632882,0,0)" />
    <flowRoot
       transform="matrix(0.45559303,0,0,0.45559303,208.95252,766.68804)"
       xml:space="preserve"
       id="flowRoot2993-1-9-2-9-4-1"
       style="font-size:24px;font-style:normal;font-variant:normal;font-weight:normal;font-stretch:normal;line-height:125%;letter-spacing:0px;word-spacing:0px;fill:#000000;fill-opacity:1;stroke:none;font-family:Impact;-inkscape-font-specification:Impact"><flowRegion
         id="flowRegion2995-7-4-2-8-8-8"><rect
           id="rect2997-4-8-16-6-6-4"
           width="158.57143"
           height="41.42857"
           x="30.714285"
           y="31.647896"
           style="font-size:24px" /></flowRegion><flowPara
         id="flowPara2999-0-8-8-5-5-9"
         style="font-size:24px;font-style:normal;font-variant:normal;font-weight:normal;font-stretch:normal;text-align:center;text-anchor:middle;font-family:Cambria Math;-inkscape-font-specification:Cambria Math">Pause</flowPara></flowRoot>    <rect
       style="fill:#ffffff;fill-opacity:1;stroke:#000000;stroke-width:0.92772382;stroke-linejoin:round;stroke-miterlimit:4;stroke-opacity:1;stroke-dasharray:none;stroke-dashoffset:0"
       id="rect2991-23-1-0-6"
       width="43.657593"
       height="43.657593"
       x="-939.65973"
       y="1178.5334"
       transform="matrix(0.91810864,-0.39632882,0.91810864,0.39632882,0,0)" />
    <flowRoot
       transform="matrix(0.45559303,0,0,0.45559303,208.95374,818.94111)"
       xml:space="preserve"
       id="flowRoot2993-1-9-2-9-9-3"
       style="font-size:24px;font-style:normal;font-variant:normal;font-weight:normal;font-stretch:normal;line-height:125%;letter-spacing:0px;word-spacing:0px;fill:#000000;fill-opacity:1;stroke:none;font-family:Impact;-inkscape-font-specification:Impact"><flowRegion
         id="flowRegion2995-7-4-2-8-0-7"><rect
           id="rect2997-4-8-16-6-0-8"
           width="158.57143"
           height="41.42857"
           x="30.714285"
           y="31.647896"
           style="font-size:24px" /></flowRegion><flowPara
         id="flowPara2999-0-8-8-5-6-8"
         style="font-size:24px;font-style:normal;font-variant:normal;font-weight:normal;font-stretch:normal;text-align:center;text-anchor:middle;font-family:Cambria Math;-inkscape-font-specification:Cambria Math">Reset</flowPara></flowRoot>    <rect
       style="fill:#ffffff;fill-opacity:1;stroke:#000000;stroke-width:0.92772382;stroke-linejoin:round;stroke-miterlimit:4;stroke-opacity:1;stroke-dasharray:none;stroke-dashoffset:0"
       id="rect2991-23-1-2-2"
       width="43.657593"
       height="43.657593"
       x="-819.04572"
       y="902.23224"
       transform="matrix(0.91810864,-0.39632882,0.91810864,0.39632882,0,0)" />
    <flowRoot
       transform="matrix(0.45559303,0,0,0.45559303,66.015936,661.63218)"
       xml:space="preserve"
       id="flowRoot2993-1-9-2-9-4-9"
       style="font-size:24px;font-style:normal;font-variant:normal;font-weight:normal;font-stretch:normal;line-height:125%;letter-spacing:0px;word-spacing:0px;fill:#000000;fill-opacity:1;stroke:none;font-family:Impact;-inkscape-font-specification:Impact"><flowRegion
         id="flowRegion2995-7-4-2-8-8-1"><rect
           id="rect2997-4-8-16-6-6-3"
           width="158.57143"
           height="41.42857"
           x="30.714285"
           y="31.647896"
           style="font-size:24px" /></flowRegion><flowPara
         id="flowPara2999-0-8-8-5-5-5"
         style="font-size:24px;font-style:normal;font-variant:normal;font-weight:normal;font-stretch:normal;text-align:center;text-anchor:middle;font-family:Cambria Math;-inkscape-font-specification:Cambria Math">Mode_Sel</flowPara></flowRoot>    <rect
       style="fill:#ffffff;fill-opacity:1;stroke:#000000;stroke-width:0.92772382;stroke-linejoin:round;stroke-miterlimit:4;stroke-opacity:1;stroke-dasharray:none;stroke-dashoffset:0"
       id="rect2991-23-1-0-9"
       width="43.657593"
       height="43.657593"
       x="-884.96643"
       y="968.1543"
       transform="matrix(0.91810864,-0.39632882,0.91810864,0.39632882,0,0)" />
    <flowRoot
       transform="matrix(0.45559303,0,0,0.45559303,66.017156,713.88524)"
       xml:space="preserve"
       id="flowRoot2993-1-9-2-9-9-8"
       style="font-size:24px;font-style:normal;font-variant:normal;font-weight:normal;font-stretch:normal;line-height:125%;letter-spacing:0px;word-spacing:0px;fill:#000000;fill-opacity:1;stroke:none;font-family:Impact;-inkscape-font-specification:Impact"><flowRegion
         id="flowRegion2995-7-4-2-8-0-4"><rect
           id="rect2997-4-8-16-6-0-0"
           width="158.57143"
           height="41.42857"
           x="30.714285"
           y="31.647896"
           style="font-size:24px" /></flowRegion><flowPara
         id="flowPara2999-0-8-8-5-6-7"
         style="font-size:24px;font-style:normal;font-variant:normal;font-weight:normal;font-stretch:normal;text-align:center;text-anchor:middle;font-family:Cambria Math;-inkscape-font-specification:Cambria Math">Reset</flowPara></flowRoot>    <rect
       style="fill:#ffffff;fill-opacity:1;stroke:#000000;stroke-width:0.77450818;stroke-linejoin:round;stroke-miterlimit:4;stroke-opacity:1;stroke-dasharray:none;stroke-dashoffset:0"
       id="rect2987-2-0-17"
       width="81.681328"
       height="27.986429"
       x="569.33856"
       y="233.29565" />
    <flowRoot
       xml:space="preserve"
       id="flowRoot2993-4-2-40"
       style="font-size:32px;font-style:normal;font-variant:normal;font-weight:normal;font-stretch:normal;line-height:125%;letter-spacing:0px;word-spacing:0px;fill:#000000;fill-opacity:1;stroke:none;font-family:Impact;-inkscape-font-specification:Impact"
       transform="matrix(0.45559303,0,0,0.45559303,560.87761,223.75846)"><flowRegion
         id="flowRegion2995-5-8-9"><rect
           id="rect2997-5-6-4"
           width="158.57143"
           height="41.42857"
           x="30.714285"
           y="31.647896" /></flowRegion><flowPara
         id="flowPara2999-1-0-8"
         style="font-style:normal;font-variant:normal;font-weight:normal;font-stretch:normal;text-align:center;text-anchor:middle;font-family:Cambria Math;-inkscape-font-specification:Cambria Math">Pause</flowPara></flowRoot>    <rect
       style="fill:#ffffff;fill-opacity:1;stroke:#000000;stroke-width:0.92772382;stroke-linejoin:round;stroke-miterlimit:4;stroke-opacity:1;stroke-dasharray:none;stroke-dashoffset:0"
       id="rect2991-23-1-2-8"
       width="43.657593"
       height="43.657593"
       x="-64.018166"
       y="685.51404"
       transform="matrix(0.91810864,-0.39632882,0.91810864,0.39632882,0,0)" />
    <flowRoot
       transform="matrix(0.45559303,0,0,0.45559303,560.24248,276.50137)"
       xml:space="preserve"
       id="flowRoot2993-1-9-2-9-4-2"
       style="font-size:24px;font-style:normal;font-variant:normal;font-weight:normal;font-stretch:normal;line-height:125%;letter-spacing:0px;word-spacing:0px;fill:#000000;fill-opacity:1;stroke:none;font-family:Impact;-inkscape-font-specification:Impact"><flowRegion
         id="flowRegion2995-7-4-2-8-8-4"><rect
           id="rect2997-4-8-16-6-6-5"
           width="158.57143"
           height="41.42857"
           x="30.714285"
           y="31.647896"
           style="font-size:24px" /></flowRegion><flowPara
         id="flowPara2999-0-8-8-5-5-51"
         style="font-size:24px;font-style:normal;font-variant:normal;font-weight:normal;font-stretch:normal;text-align:center;text-anchor:middle;font-family:Cambria Math;-inkscape-font-specification:Cambria Math">Mode_Sel</flowPara></flowRoot>    <rect
       style="fill:#ffffff;fill-opacity:1;stroke:#000000;stroke-width:0.77450818;stroke-linejoin:round;stroke-miterlimit:4;stroke-opacity:1;stroke-dasharray:none;stroke-dashoffset:0"
       id="rect2987-2-7"
       width="81.681328"
       height="27.986429"
       x="567.82336"
       y="336.97372" />
    <flowRoot
       xml:space="preserve"
       id="flowRoot2993-4-1"
       style="font-size:32px;font-style:normal;font-variant:normal;font-weight:normal;font-stretch:normal;line-height:125%;letter-spacing:0px;word-spacing:0px;fill:#000000;fill-opacity:1;stroke:none;font-family:Impact;-inkscape-font-specification:Impact"
       transform="matrix(0.45559303,0,0,0.45559303,559.36238,327.43653)"><flowRegion
         id="flowRegion2995-5-15"><rect
           id="rect2997-5-27"
           width="158.57143"
           height="41.42857"
           x="30.714285"
           y="31.647896" /></flowRegion><flowPara
         id="flowPara2999-1-6"
         style="font-style:normal;font-variant:normal;font-weight:normal;font-stretch:normal;text-align:center;text-anchor:middle;font-family:Cambria Math;-inkscape-font-specification:Cambria Math">B</flowPara></flowRoot>    <rect
       style="fill:#ffffff;fill-opacity:1;stroke:#000000;stroke-width:0.92772382;stroke-linejoin:round;stroke-miterlimit:4;stroke-opacity:1;stroke-dasharray:none;stroke-dashoffset:0"
       id="rect2991-2-1"
       width="43.657593"
       height="43.657593"
       x="-197.11848"
       y="815.86505"
       transform="matrix(0.91810864,-0.39632882,0.91810864,0.39632882,0,0)" />
    <flowRoot
       transform="matrix(0.45559303,0,0,0.45559303,557.71833,380.91472)"
       xml:space="preserve"
       id="flowRoot2993-1-9-7-4"
       style="font-size:24px;font-style:normal;font-variant:normal;font-weight:normal;font-stretch:normal;line-height:125%;letter-spacing:0px;word-spacing:0px;fill:#000000;fill-opacity:1;stroke:none;font-family:Impact;-inkscape-font-specification:Impact"><flowRegion
         id="flowRegion2995-7-4-6-2"><rect
           id="rect2997-4-8-1-3"
           width="158.57143"
           height="41.42857"
           x="30.714285"
           y="31.647896"
           style="font-size:24px" /></flowRegion><flowPara
         id="flowPara2999-0-8-4-2"
         style="font-size:24px;font-style:normal;font-variant:normal;font-weight:normal;font-stretch:normal;text-align:center;text-anchor:middle;font-family:Cambria Math;-inkscape-font-specification:Cambria Math">Reset</flowPara></flowRoot>    <rect
       style="fill:#ffffff;fill-opacity:1;stroke:#000000;stroke-width:0.92772382;stroke-linejoin:round;stroke-miterlimit:4;stroke-opacity:1;stroke-dasharray:none;stroke-dashoffset:0"
       id="rect2991-23-2"
       width="43.657593"
       height="43.657593"
       x="-264.66101"
       y="883.40759"
       transform="matrix(0.91810864,-0.39632882,0.91810864,0.39632882,0,0)" />
    <flowRoot
       transform="matrix(0.45559303,0,0,0.45559303,557.71832,434.4528)"
       xml:space="preserve"
       id="flowRoot2993-1-9-2-1"
       style="font-size:24px;font-style:normal;font-variant:normal;font-weight:normal;font-stretch:normal;line-height:125%;letter-spacing:0px;word-spacing:0px;fill:#000000;fill-opacity:1;stroke:none;font-family:Impact;-inkscape-font-specification:Impact"><flowRegion
         id="flowRegion2995-7-4-2-6"><rect
           id="rect2997-4-8-16-8"
           width="158.57143"
           height="41.42857"
           x="30.714285"
           y="31.647896"
           style="font-size:24px" /></flowRegion><flowPara
         id="flowPara2999-0-8-8-57"
         style="font-size:24px;font-style:normal;font-variant:normal;font-weight:normal;font-stretch:normal;text-align:center;text-anchor:middle;font-family:Cambria Math;-inkscape-font-specification:Cambria Math">Pause</flowPara></flowRoot>    <rect
       style="fill:#ffffff;fill-opacity:1;stroke:#000000;stroke-width:0.77450818;stroke-linejoin:round;stroke-miterlimit:4;stroke-opacity:1;stroke-dasharray:none;stroke-dashoffset:0"
       id="rect2987-2-54-6"
       width="81.681328"
       height="27.986429"
       x="462.76746"
       y="387.12009" />
    <flowRoot
       xml:space="preserve"
       id="flowRoot2993-4-3-1"
       style="font-size:32px;font-style:normal;font-variant:normal;font-weight:normal;font-stretch:normal;line-height:125%;letter-spacing:0px;word-spacing:0px;fill:#000000;fill-opacity:1;stroke:none;font-family:Impact;-inkscape-font-specification:Impact"
       transform="matrix(0.45559303,0,0,0.45559303,454.30654,377.58285)"><flowRegion
         id="flowRegion2995-5-1-8"><rect
           id="rect2997-5-2-9"
           width="158.57143"
           height="41.42857"
           x="30.714285"
           y="31.647896" /></flowRegion><flowPara
         id="flowPara2999-1-3-2"
         style="font-style:normal;font-variant:normal;font-weight:normal;font-stretch:normal;text-align:center;text-anchor:middle;font-family:Cambria Math;-inkscape-font-specification:Cambria Math">Reset</flowPara></flowRoot>    <flowRoot
       xml:space="preserve"
       id="flowRoot3232"
       style="fill:black;stroke:none;stroke-opacity:1;stroke-width:1px;stroke-linejoin:miter;stroke-linecap:butt;fill-opacity:1;font-family:Impact;font-style:normal;font-weight:normal;font-size:32px;line-height:125%;letter-spacing:0px;word-spacing:0px;-inkscape-font-specification:Impact;font-stretch:normal;font-variant:normal"><flowRegion
         id="flowRegion3234"><rect
           id="rect3236"
           width="58.588848"
           height="62.124382"
           x="23.233509"
           y="116.45586" /></flowRegion><flowPara
         id="flowPara3238"></flowPara></flowRoot>    <path
       sodipodi:type="arc"
       style="fill:#ffffff;fill-opacity:1;stroke:#000000;stroke-width:1.70000005;stroke-linejoin:round;stroke-miterlimit:4;stroke-opacity:1;stroke-dasharray:none;stroke-dashoffset:0"
       id="path3057-7"
       sodipodi:cx="83.214287"
       sodipodi:cy="267.71933"
       sodipodi:rx="33.92857"
       sodipodi:ry="31.785715"
       d="m 117.14286,267.71933 a 33.92857,31.785715 0 1 1 -67.857143,0 33.92857,31.785715 0 1 1 67.857143,0 z"
       transform="matrix(0.45559303,0,0,0.45559303,144.5991,75.494948)" />
    <text
       xml:space="preserve"
       style="font-size:14.57897663px;font-style:normal;font-variant:normal;font-weight:normal;font-stretch:normal;line-height:125%;letter-spacing:0px;word-spacing:0px;fill:#000000;fill-opacity:1;stroke:none;font-family:Impact;-inkscape-font-specification:Impact"
       x="178.11774"
       y="202.51009"
       id="text3059-9"
       sodipodi:linespacing="125%"><tspan
         sodipodi:role="line"
         id="tspan3061-5"
         x="178.11774"
         y="202.51009"
         style="font-style:normal;font-variant:normal;font-weight:normal;font-stretch:normal;font-family:Cambria Math;-inkscape-font-specification:Cambria Math">1</tspan></text>
    <path
       sodipodi:type="arc"
       style="fill:#ffffff;fill-opacity:1;stroke:#000000;stroke-width:1.70000005;stroke-linejoin:round;stroke-miterlimit:4;stroke-opacity:1;stroke-dasharray:none;stroke-dashoffset:0"
       id="path3057-7-4"
       sodipodi:cx="83.214287"
       sodipodi:cy="267.71933"
       sodipodi:rx="33.92857"
       sodipodi:ry="31.785715"
       d="m 117.14286,267.71933 a 33.92857,31.785715 0 1 1 -67.857143,0 33.92857,31.785715 0 1 1 67.857143,0 z"
       transform="matrix(0.45559303,0,0,0.45559303,249.65496,342.68029)"
       inkscape:transform-center-x="15.844874"
       inkscape:transform-center-y="-14.868604" />
    <text
       xml:space="preserve"
       style="font-size:14.57897663px;font-style:normal;font-variant:normal;font-weight:normal;font-stretch:normal;line-height:125%;letter-spacing:0px;word-spacing:0px;fill:#000000;fill-opacity:1;stroke:none;font-family:Impact;-inkscape-font-specification:Impact"
       x="283.17361"
       y="469.69543"
       id="text3059-9-3"
       sodipodi:linespacing="125%"
       inkscape:transform-center-x="16.137733"
       inkscape:transform-center-y="-14.739947"><tspan
         sodipodi:role="line"
         id="tspan3061-5-1"
         x="283.17361"
         y="469.69543"
         style="font-style:normal;font-variant:normal;font-weight:normal;font-stretch:normal;font-family:Cambria Math;-inkscape-font-specification:Cambria Math">2</tspan><tspan
         sodipodi:role="line"
         x="283.17361"
         y="487.91916"
         style="font-style:normal;font-variant:normal;font-weight:normal;font-stretch:normal;font-family:Cambria Math;-inkscape-font-specification:Cambria Math"
         id="tspan3288" /></text>
    <flowRoot
       xml:space="preserve"
       id="flowRoot3290"
       style="fill:black;stroke:none;stroke-opacity:1;stroke-width:1px;stroke-linejoin:miter;stroke-linecap:butt;fill-opacity:1;font-family:Impact;font-style:normal;font-weight:normal;font-size:32px;line-height:125%;letter-spacing:0px;word-spacing:0px;-inkscape-font-specification:Impact;font-stretch:normal;font-variant:normal"><flowRegion
         id="flowRegion3292"><rect
           id="rect3294"
           width="62.124382"
           height="55.558388"
           x="369.21075"
           y="354.85187" /></flowRegion><flowPara
         id="flowPara3296"></flowPara></flowRoot>    <path
       sodipodi:type="arc"
       style="fill:#ffffff;fill-opacity:1;stroke:#000000;stroke-width:1.70000005;stroke-linejoin:round;stroke-miterlimit:4;stroke-opacity:1;stroke-dasharray:none;stroke-dashoffset:0"
       id="path3057-7-4-2"
       sodipodi:cx="83.214287"
       sodipodi:cy="267.71933"
       sodipodi:rx="33.92857"
       sodipodi:ry="31.785715"
       d="m 117.14286,267.71933 a 33.92857,31.785715 0 1 1 -67.857143,0 33.92857,31.785715 0 1 1 67.857143,0 z"
       transform="matrix(0.45559303,0,0,0.45559303,670.25223,228.1295)"
       inkscape:transform-center-x="15.844874"
       inkscape:transform-center-y="-14.868604" />
    <text
       xml:space="preserve"
       style="font-size:14.57897663px;font-style:normal;font-variant:normal;font-weight:normal;font-stretch:normal;line-height:125%;letter-spacing:0px;word-spacing:0px;fill:#000000;fill-opacity:1;stroke:none;font-family:Impact;-inkscape-font-specification:Impact"
       x="703.77087"
       y="355.14465"
       id="text3059-9-3-3"
       sodipodi:linespacing="125%"
       inkscape:transform-center-x="16.137733"
       inkscape:transform-center-y="-14.739947"><tspan
         sodipodi:role="line"
         id="tspan3061-5-1-3"
         x="703.77087"
         y="355.14465"
         style="font-style:normal;font-variant:normal;font-weight:normal;font-stretch:normal;font-family:Cambria Math;-inkscape-font-specification:Cambria Math">2</tspan><tspan
         sodipodi:role="line"
         x="703.77087"
         y="373.36838"
         style="font-style:normal;font-variant:normal;font-weight:normal;font-stretch:normal;font-family:Cambria Math;-inkscape-font-specification:Cambria Math"
         id="tspan3288-4" /></text>
    <path
       sodipodi:type="arc"
       style="fill:#ffffff;fill-opacity:1;stroke:#000000;stroke-width:1.70000005;stroke-linejoin:round;stroke-miterlimit:4;stroke-opacity:1;stroke-dasharray:none;stroke-dashoffset:0"
       id="path3057-7-4-1"
       sodipodi:cx="83.214287"
       sodipodi:cy="267.71933"
       sodipodi:rx="33.92857"
       sodipodi:ry="31.785715"
       d="m 117.14286,267.71933 a 33.92857,31.785715 0 1 1 -67.857143,0 33.92857,31.785715 0 1 1 67.857143,0 z"
       transform="matrix(0.45559303,0,0,0.45559303,138.1444,662.61405)"
       inkscape:transform-center-x="15.844874"
       inkscape:transform-center-y="-14.868604" />
    <text
       xml:space="preserve"
       style="font-size:14.57897663px;font-style:normal;font-variant:normal;font-weight:normal;font-stretch:normal;line-height:125%;letter-spacing:0px;word-spacing:0px;fill:#000000;fill-opacity:1;stroke:none;font-family:Impact;-inkscape-font-specification:Impact"
       x="171.66304"
       y="789.62915"
       id="text3059-9-3-1"
       sodipodi:linespacing="125%"
       inkscape:transform-center-x="16.137733"
       inkscape:transform-center-y="-14.739947"><tspan
         sodipodi:role="line"
         id="tspan3061-5-1-38"
         x="171.66304"
         y="789.62915"
         style="font-style:normal;font-variant:normal;font-weight:normal;font-stretch:normal;font-family:Cambria Math;-inkscape-font-specification:Cambria Math">2</tspan><tspan
         sodipodi:role="line"
         x="171.66304"
         y="807.85284"
         style="font-style:normal;font-variant:normal;font-weight:normal;font-stretch:normal;font-family:Cambria Math;-inkscape-font-specification:Cambria Math"
         id="tspan3288-7" /></text>
    <path
       sodipodi:type="arc"
       style="fill:#ffffff;fill-opacity:1;stroke:#000000;stroke-width:1.70000005;stroke-linejoin:round;stroke-miterlimit:4;stroke-opacity:1;stroke-dasharray:none;stroke-dashoffset:0"
       id="path3057-7-4-4"
       sodipodi:cx="83.214287"
       sodipodi:cy="267.71933"
       sodipodi:rx="33.92857"
       sodipodi:ry="31.785715"
       d="m 117.14286,267.71933 a 33.92857,31.785715 0 1 1 -67.857143,0 33.92857,31.785715 0 1 1 67.857143,0 z"
       transform="matrix(0.45559303,0,0,0.45559303,136.62917,718.67751)"
       inkscape:transform-center-x="15.844874"
       inkscape:transform-center-y="-14.868604" />
    <text
       xml:space="preserve"
       style="font-size:14.57897663px;font-style:normal;font-variant:normal;font-weight:normal;font-stretch:normal;line-height:125%;letter-spacing:0px;word-spacing:0px;fill:#000000;fill-opacity:1;stroke:none;font-family:Impact;-inkscape-font-specification:Impact"
       x="170.14781"
       y="845.69269"
       id="text3059-9-3-2"
       sodipodi:linespacing="125%"
       inkscape:transform-center-x="16.137733"
       inkscape:transform-center-y="-14.739947"><tspan
         sodipodi:role="line"
         id="tspan3061-5-1-7"
         x="170.14781"
         y="845.69269"
         style="font-style:normal;font-variant:normal;font-weight:normal;font-stretch:normal;font-family:Cambria Math;-inkscape-font-specification:Cambria Math">3</tspan><tspan
         sodipodi:role="line"
         x="170.14781"
         y="863.91638"
         style="font-style:normal;font-variant:normal;font-weight:normal;font-stretch:normal;font-family:Cambria Math;-inkscape-font-specification:Cambria Math"
         id="tspan3288-79" /></text>
    <flowRoot
       xml:space="preserve"
       id="flowRoot3351"
       style="fill:black;stroke:none;stroke-opacity:1;stroke-width:1px;stroke-linejoin:miter;stroke-linecap:butt;fill-opacity:1;font-family:Impact;font-style:normal;font-weight:normal;font-size:32px;line-height:125%;letter-spacing:0px;word-spacing:0px;-inkscape-font-specification:Impact;font-stretch:normal;font-variant:normal"><flowRegion
         id="flowRegion3353"><rect
           id="rect3355"
           width="36.36549"
           height="42.426407"
           x="357.08893"
           y="821.03723" /></flowRegion><flowPara
         id="flowPara3357"></flowPara></flowRoot>    <path
       sodipodi:type="arc"
       style="fill:#ffffff;fill-opacity:1;stroke:#000000;stroke-width:1.70000005;stroke-linejoin:round;stroke-miterlimit:4;stroke-opacity:1;stroke-dasharray:none;stroke-dashoffset:0"
       id="path3057-7-4-4-3"
       sodipodi:cx="83.214287"
       sodipodi:cy="267.71933"
       sodipodi:rx="33.92857"
       sodipodi:ry="31.785715"
       d="m 117.14286,267.71933 a 33.92857,31.785715 0 1 1 -67.857143,0 33.92857,31.785715 0 1 1 67.857143,0 z"
       transform="matrix(0.45559303,0,0,0.45559303,382.86383,279.14221)"
       inkscape:transform-center-x="15.844874"
       inkscape:transform-center-y="-14.868604" />
    <text
       xml:space="preserve"
       style="font-size:14.57897663px;font-style:normal;font-variant:normal;font-weight:normal;font-stretch:normal;line-height:125%;letter-spacing:0px;word-spacing:0px;fill:#000000;fill-opacity:1;stroke:none;font-family:Impact;-inkscape-font-specification:Impact"
       x="416.38248"
       y="406.15738"
       id="text3059-9-3-2-1"
       sodipodi:linespacing="125%"
       inkscape:transform-center-x="16.137733"
       inkscape:transform-center-y="-14.739947"><tspan
         sodipodi:role="line"
         id="tspan3061-5-1-7-9"
         x="416.38248"
         y="406.15738"
         style="font-style:normal;font-variant:normal;font-weight:normal;font-stretch:normal;font-family:Cambria Math;-inkscape-font-specification:Cambria Math">3</tspan><tspan
         sodipodi:role="line"
         x="416.38248"
         y="424.3811"
         style="font-style:normal;font-variant:normal;font-weight:normal;font-stretch:normal;font-family:Cambria Math;-inkscape-font-specification:Cambria Math"
         id="tspan3288-79-8" /></text>
    <path
       sodipodi:type="arc"
       style="fill:#ffffff;fill-opacity:1;stroke:#000000;stroke-width:1.70000005;stroke-linejoin:round;stroke-miterlimit:4;stroke-opacity:1;stroke-dasharray:none;stroke-dashoffset:0"
       id="path3057-7-6"
       sodipodi:cx="83.214287"
       sodipodi:cy="267.71933"
       sodipodi:rx="33.92857"
       sodipodi:ry="31.785715"
       d="m 117.14286,267.71933 a 33.92857,31.785715 0 1 1 -67.857143,0 33.92857,31.785715 0 1 1 67.857143,0 z"
       transform="matrix(0.45559303,0,0,0.45559303,322.08814,511.8197)" />
    <text
       xml:space="preserve"
       style="font-size:14.57897663px;font-style:normal;font-variant:normal;font-weight:normal;font-stretch:normal;line-height:125%;letter-spacing:0px;word-spacing:0px;fill:#000000;fill-opacity:1;stroke:none;font-family:Impact;-inkscape-font-specification:Impact"
       x="355.60678"
       y="638.83484"
       id="text3059-9-5"
       sodipodi:linespacing="125%"><tspan
         sodipodi:role="line"
         id="tspan3061-5-0"
         x="355.60678"
         y="638.83484"
         style="font-style:normal;font-variant:normal;font-weight:normal;font-stretch:normal;font-family:Cambria Math;-inkscape-font-specification:Cambria Math">1</tspan></text>
    <path
       sodipodi:type="arc"
       style="fill:#ffffff;fill-opacity:1;stroke:#000000;stroke-width:1.70000005;stroke-linejoin:round;stroke-miterlimit:4;stroke-opacity:1;stroke-dasharray:none;stroke-dashoffset:0"
       id="path3057-7-2"
       sodipodi:cx="83.214287"
       sodipodi:cy="267.71933"
       sodipodi:rx="33.92857"
       sodipodi:ry="31.785715"
       d="m 117.14286,267.71933 a 33.92857,31.785715 0 1 1 -67.857143,0 33.92857,31.785715 0 1 1 67.857143,0 z"
       transform="matrix(0.45559303,0,0,0.45559303,480.65957,174.67684)" />
    <text
       xml:space="preserve"
       style="font-size:14.57897663px;font-style:normal;font-variant:normal;font-weight:normal;font-stretch:normal;line-height:125%;letter-spacing:0px;word-spacing:0px;fill:#000000;fill-opacity:1;stroke:none;font-family:Impact;-inkscape-font-specification:Impact"
       x="514.17822"
       y="301.69199"
       id="text3059-9-8"
       sodipodi:linespacing="125%"><tspan
         sodipodi:role="line"
         id="tspan3061-5-6"
         x="514.17822"
         y="301.69199"
         style="font-style:normal;font-variant:normal;font-weight:normal;font-stretch:normal;font-family:Cambria Math;-inkscape-font-specification:Cambria Math">1</tspan></text>
    <path
       sodipodi:type="arc"
       style="fill:#ffffff;fill-opacity:1;stroke:#000000;stroke-width:1.70000005;stroke-linejoin:round;stroke-miterlimit:4;stroke-opacity:1;stroke-dasharray:none;stroke-dashoffset:0"
       id="path3057-7-6-0"
       sodipodi:cx="83.214287"
       sodipodi:cy="267.71933"
       sodipodi:rx="33.92857"
       sodipodi:ry="31.785715"
       d="m 117.14286,267.71933 a 33.92857,31.785715 0 1 1 -67.857143,0 33.92857,31.785715 0 1 1 67.857143,0 z"
       transform="matrix(0.45559303,0,0,0.45559303,-12.197565,563.24827)" />
    <text
       xml:space="preserve"
       style="font-size:14.57897663px;font-style:normal;font-variant:normal;font-weight:normal;font-stretch:normal;line-height:125%;letter-spacing:0px;word-spacing:0px;fill:#000000;fill-opacity:1;stroke:none;font-family:Impact;-inkscape-font-specification:Impact"
       x="21.321074"
       y="690.26343"
       id="text3059-9-5-2"
       sodipodi:linespacing="125%"><tspan
         sodipodi:role="line"
         id="tspan3061-5-0-4"
         x="21.321074"
         y="690.26343"
         style="font-style:normal;font-variant:normal;font-weight:normal;font-stretch:normal;font-family:Cambria Math;-inkscape-font-specification:Cambria Math">1</tspan></text>
    <path
       style="fill:none;stroke:#000000;stroke-width:1px;stroke-linecap:butt;stroke-linejoin:miter;stroke-opacity:1"
       d="m 225,87.362183 0,24.999997 5,-5 -10,0 5,5"
       id="path3445"
       inkscape:connector-curvature="0" />
    <path
       style="fill:#ffffff;fill-opacity:1;stroke:#000000;stroke-width:0.30357143;stroke-linejoin:round;stroke-miterlimit:4;stroke-opacity:1;stroke-dasharray:none;stroke-dashoffset:0"
       d="m 222.84721,109.3444 -1.42019,-1.42857 1.46903,0 1.46902,0 0,1.42857 c 0,0.78572 -0.022,1.42857 -0.0488,1.42857 -0.0269,0 -0.68792,-0.64285 -1.46903,-1.42857 z"
       id="path3447"
       inkscape:connector-curvature="0" />
    <path
       style="fill:#ffffff;fill-opacity:1;stroke:#000000;stroke-width:0.30357143;stroke-linejoin:round;stroke-miterlimit:4;stroke-opacity:1;stroke-dasharray:none;stroke-dashoffset:0"
       d="m 222.9365,109.07654 -0.96994,-0.98214 1.10997,0 1.10997,0 0,0.98214 c 0,0.54018 -0.063,0.98215 -0.14003,0.98215 -0.077,0 -0.5765,-0.44197 -1.10997,-0.98215 z"
       id="path3449"
       inkscape:connector-curvature="0" />
    <path
       style="fill:#ffffff;fill-opacity:1;stroke:#000000;stroke-width:0.30357143;stroke-linejoin:round;stroke-miterlimit:4;stroke-opacity:1;stroke-dasharray:none;stroke-dashoffset:0"
       d="m 223.11507,108.89797 -0.60577,-0.625 0.74931,0 c 0.73732,0 0.74932,0.01 0.74932,0.625 0,0.34375 -0.0646,0.625 -0.14354,0.625 -0.0789,0 -0.41614,-0.28125 -0.74932,-0.625 z"
       id="path3451"
       inkscape:connector-curvature="0" />
    <path
       style="fill:#ffffff;fill-opacity:1;stroke:#000000;stroke-width:0.30357143;stroke-linejoin:round;stroke-miterlimit:4;stroke-opacity:1;stroke-dasharray:none;stroke-dashoffset:0"
       d=""
       id="path3453"
       inkscape:connector-curvature="0" />
    <path
       style="fill:#ffffff;fill-opacity:1;stroke:#000000;stroke-width:0.30357143;stroke-linejoin:round;stroke-miterlimit:4;stroke-opacity:1;stroke-dasharray:none;stroke-dashoffset:0"
       d=""
       id="path3455"
       inkscape:connector-curvature="0" />
    <path
       style="fill:#ffffff;fill-opacity:1;stroke:#000000;stroke-width:0.03794643;stroke-linejoin:round;stroke-miterlimit:4;stroke-opacity:1;stroke-dasharray:none;stroke-dashoffset:0"
       d="m 225.51931,109.48783 0,-1.60715 1.61266,0 1.61267,0 -1.60703,1.60715 c -0.88386,0.88392 -1.60956,1.60714 -1.61266,1.60714 -0.003,0 -0.006,-0.72322 -0.006,-1.60714 z"
       id="path3457"
       inkscape:connector-curvature="0" />
    <path
       style="fill:#ffffff;fill-opacity:1;stroke:#000000;stroke-width:0.03794643;stroke-linejoin:round;stroke-miterlimit:4;stroke-opacity:1;stroke-dasharray:none;stroke-dashoffset:0"
       d="m 225.55637,110.63575 c -0.008,-0.20559 -0.0147,-0.90457 -0.0147,-1.55327 l 0,-1.17948 1.5625,0 c 0.85937,0 1.5625,0.003 1.5625,0.006 0,0.003 -0.69649,0.70207 -1.54776,1.55327 l -1.54776,1.54764 -0.0147,-0.37381 z"
       id="path3459"
       inkscape:connector-curvature="0" />
    <path
       style="fill:#ffffff;fill-opacity:1;stroke:#000000;stroke-width:0.03794643;stroke-linejoin:round;stroke-miterlimit:4;stroke-opacity:1;stroke-dasharray:none;stroke-dashoffset:0"
       d="m 225.57878,109.82823 c -0.008,-0.5985 -0.0148,-1.27149 -0.0148,-1.49554 l -3e-5,-0.40736 1.06784,0 c 0.58731,0 1.26619,0.007 1.50861,0.0148 l 0.44078,0.0148 -1.48065,1.48077 c -0.81436,0.81443 -1.48657,1.48078 -1.49381,1.48078 -0.007,0 -0.0198,-0.48968 -0.0279,-1.08817 z"
       id="path3461"
       inkscape:connector-curvature="0" />
    <path
       style="fill:#ffffff;fill-opacity:1;stroke:#000000;stroke-width:0.03794643;stroke-linejoin:round;stroke-miterlimit:4;stroke-opacity:1;stroke-dasharray:none;stroke-dashoffset:0"
       d="m 225.62268,110.26368 c -0.007,-0.31009 -0.0194,-0.95929 -0.0267,-1.44266 l -0.0135,-0.87887 1.43604,0.0164 c 0.78983,0.009 1.44474,0.0216 1.45537,0.028 0.02,0.012 -1.81263,1.85832 -2.46658,2.48503 l -0.37135,0.3559 -0.0133,-0.56381 z"
       id="path3463"
       inkscape:connector-curvature="0" />
    <path
       style="fill:#ffffff;fill-opacity:1;stroke:#000000;stroke-width:0.03794643;stroke-linejoin:round;stroke-miterlimit:4;stroke-opacity:1;stroke-dasharray:none;stroke-dashoffset:0"
       d="m 225.64485,109.77201 c -0.008,-0.54302 -0.0207,-1.17116 -0.0284,-1.39586 l -0.0139,-0.40856 1.0019,0.0151 c 0.55105,0.008 1.18226,0.0214 1.40269,0.0291 l 0.40079,0.014 -0.91915,0.92856 c -0.50553,0.5107 -1.12397,1.12575 -1.37432,1.36677 l -0.45517,0.43822 -0.0145,-0.98731 z"
       id="path3465"
       inkscape:connector-curvature="0" />
    <path
       style="fill:#ffffff;fill-opacity:1;stroke:#000000;stroke-width:0.03794643;stroke-linejoin:round;stroke-miterlimit:4;stroke-opacity:1;stroke-dasharray:none;stroke-dashoffset:0"
       d="m 225.68946,110.60088 c -0.008,-0.0382 -0.0143,-0.29679 -0.0148,-0.57455 -5e-4,-0.27776 -0.01,-0.84651 -0.0205,-1.26388 -0.0108,-0.41737 -0.0178,-0.76066 -0.0156,-0.76287 0.0113,-0.0113 2.51629,0.0426 2.59029,0.0558 l 0.0867,0.0154 -0.58046,0.59132 c -0.31925,0.32523 -0.90698,0.91014 -1.30607,1.2998 -0.72066,0.70363 -0.72572,0.708 -0.73953,0.63895 z"
       id="path3467"
       inkscape:connector-curvature="0" />
    <path
       style="fill:#ffffff;fill-opacity:1;stroke:#000000;stroke-width:0.03794643;stroke-linejoin:round;stroke-miterlimit:4;stroke-opacity:1;stroke-dasharray:none;stroke-dashoffset:0"
       d="m 225.71164,110.19673 c -0.007,-0.21189 -0.0197,-0.78616 -0.0274,-1.27616 l -0.014,-0.89092 0.97925,0.0178 c 0.53858,0.01 1.11987,0.024 1.29174,0.0315 l 0.3125,0.0138 -1.09375,1.0906 c -0.60156,0.59983 -1.17051,1.15991 -1.26433,1.24461 l -0.17058,0.15402 -0.0134,-0.38524 0,0 z"
       id="path3469"
       inkscape:connector-curvature="0" />
    <path
       style="fill:#ffffff;fill-opacity:1;stroke:#000000;stroke-width:0.03794643;stroke-linejoin:round;stroke-miterlimit:4;stroke-opacity:1;stroke-dasharray:none;stroke-dashoffset:0"
       d="m 225.74234,110.31065 c -1e-4,-0.11494 -0.0105,-0.66482 -0.0231,-1.22195 -0.0126,-0.55714 -0.0187,-1.01721 -0.0135,-1.0224 0.0128,-0.0128 2.28283,0.0361 2.37875,0.0513 l 0.0763,0.0121 -0.94685,0.94839 c -0.52076,0.52162 -1.06487,1.05936 -1.20912,1.19499 l -0.26228,0.24661 -1.8e-4,-0.20899 0,0 z"
       id="path3471"
       inkscape:connector-curvature="0" />
    <path
       style="fill:#ffffff;fill-opacity:1;stroke:#000000;stroke-width:0.03794643;stroke-linejoin:round;stroke-miterlimit:4;stroke-opacity:1;stroke-dasharray:none;stroke-dashoffset:0"
       d="m 225.75733,109.59301 c -0.008,-0.46912 -0.0148,-0.99772 -0.0148,-1.17466 l -3e-5,-0.3217 0.9096,0.0148 c 0.50028,0.008 1.02849,0.0214 1.1738,0.0295 l 0.2642,0.0147 -0.65483,0.65643 c -0.36015,0.36103 -0.88171,0.87637 -1.15902,1.14519 l -0.50421,0.48877 -0.0147,-0.85296 z"
       id="path3473"
       inkscape:connector-curvature="0" />
    <path
       style="fill:#ffffff;fill-opacity:1;stroke:#000000;stroke-width:0.03794643;stroke-linejoin:round;stroke-miterlimit:4;stroke-opacity:1;stroke-dasharray:none;stroke-dashoffset:0"
       d="m 225.80105,110.21972 c -0.007,-0.0772 -0.0172,-0.58128 -0.0234,-1.12015 l -0.0112,-0.97978 0.57397,0.0145 c 0.31569,0.008 0.82354,0.0209 1.12856,0.0288 l 0.55458,0.0143 -0.42065,0.42237 c -0.23136,0.23231 -0.72869,0.72343 -1.10517,1.09138 l -0.68451,0.669 -0.0122,-0.14037 z"
       id="path3475"
       inkscape:connector-curvature="0" />
    <path
       style="fill:#ffffff;fill-opacity:1;stroke:#000000;stroke-width:0.03794643;stroke-linejoin:round;stroke-miterlimit:4;stroke-opacity:1;stroke-dasharray:none;stroke-dashoffset:0"
       d="m 225.82319,109.70568 c -0.008,-0.32239 -0.0163,-0.80592 -0.0196,-1.07451 l -0.006,-0.48836 0.30164,0.0137 c 0.16591,0.008 0.63312,0.0197 1.03825,0.0269 0.40514,0.007 0.75105,0.0178 0.7687,0.0235 0.0382,0.0123 -0.0316,0.084 -1.20701,1.2381 l -0.86242,0.84679 -0.0137,-0.58616 z"
       id="path3477"
       inkscape:connector-curvature="0" />
    <path
       style="fill:#ffffff;fill-opacity:1;stroke:#000000;stroke-width:0.03794643;stroke-linejoin:round;stroke-miterlimit:4;stroke-opacity:1;stroke-dasharray:none;stroke-dashoffset:0"
       d="m 225.84378,109.20633 c -0.009,-0.55885 -0.013,-1.01917 -0.009,-1.02294 0.006,-0.005 1.5947,0.0379 1.97848,0.0533 0.0204,8.1e-4 0.0226,0.0124 0.008,0.0402 -0.0116,0.0215 -0.45757,0.46802 -0.99103,0.9923 l -0.96992,0.95324 -0.0165,-1.0161 z"
       id="path3479"
       inkscape:connector-curvature="0" />
    <path
       style="fill:#ffffff;fill-opacity:1;stroke:#000000;stroke-width:0.03794643;stroke-linejoin:round;stroke-miterlimit:4;stroke-opacity:1;stroke-dasharray:none;stroke-dashoffset:0"
       d="m 225.88924,110.06637 c -0.007,-0.042 -0.0154,-0.47627 -0.0185,-0.96511 l -0.005,-0.8888 0.54688,0.0155 c 0.30078,0.008 0.73027,0.0217 0.95443,0.0294 l 0.40757,0.014 -0.93598,0.93568 -0.93598,0.93568 -0.013,-0.0763 z"
       id="path3481"
       inkscape:connector-curvature="0" />
    <path
       style="fill:#ffffff;fill-opacity:1;stroke:#000000;stroke-width:0.03794643;stroke-linejoin:round;stroke-miterlimit:4;stroke-opacity:1;stroke-dasharray:none;stroke-dashoffset:0"
       d="m 225.91351,109.69821 c -0.008,-0.20557 -0.0147,-0.61944 -0.0147,-0.91971 l 0,-0.54595 0.18415,0.0133 c 0.10129,0.007 0.46541,0.0197 0.80916,0.0276 0.34375,0.008 0.66276,0.0206 0.70891,0.0284 l 0.0839,0.0141 -0.87832,0.87801 -0.87833,0.87801 -0.0147,-0.37376 z"
       id="path3483"
       inkscape:connector-curvature="0" />
    <path
       style="fill:#ffffff;fill-opacity:1;stroke:#000000;stroke-width:0.03794643;stroke-linejoin:round;stroke-miterlimit:4;stroke-opacity:1;stroke-dasharray:none;stroke-dashoffset:0"
       d="m 225.93368,109.12881 c -0.009,-0.46755 -0.0129,-0.85272 -0.009,-0.85594 0.004,-0.003 0.32383,0.007 0.71055,0.0228 0.38672,0.0157 0.76836,0.0293 0.8481,0.03 l 0.14498,10e-4 -0.82567,0.82589 c -0.45412,0.45425 -0.83178,0.8259 -0.83925,0.8259 -0.007,0 -0.0209,-0.38254 -0.0299,-0.85009 z"
       id="path3485"
       inkscape:connector-curvature="0" />
    <path
       style="fill:#ffffff;fill-opacity:1;stroke:#000000;stroke-width:0.03794643;stroke-linejoin:round;stroke-miterlimit:4;stroke-opacity:1;stroke-dasharray:none;stroke-dashoffset:0"
       d="m 225.9804,109.60432 c -0.008,-0.15615 -0.0145,-0.51387 -0.0146,-0.79495 l -9e-5,-0.51104 0.31808,0.0142 c 0.17494,0.008 0.53243,0.0209 0.79441,0.029 l 0.47632,0.0148 -0.58793,0.58956 c -0.32337,0.32426 -0.67429,0.66895 -0.77984,0.76597 l -0.1919,0.1764 -0.0145,-0.2839 z"
       id="path3487"
       inkscape:connector-curvature="0" />
    <path
       style="fill:#ffffff;fill-opacity:1;stroke:#000000;stroke-width:0.03794643;stroke-linejoin:round;stroke-miterlimit:4;stroke-opacity:1;stroke-dasharray:none;stroke-dashoffset:0"
       d="m 226.00056,109.08599 c -0.009,-0.40709 -0.0124,-0.74406 -0.008,-0.74883 0.005,-0.005 0.21907,8.1e-4 0.47624,0.0124 0.25718,0.0116 0.58,0.0213 0.71739,0.0216 0.13739,3.2e-4 0.25485,0.009 0.26102,0.0187 0.01,0.0155 -0.76458,0.79695 -1.27207,1.28404 l -0.15858,0.1522 -0.0163,-0.74016 z"
       id="path3489"
       inkscape:connector-curvature="0" />
  </g>
</svg>
