VERSION 5
BEGIN SYMBOL 
SYMBOLTYPE BLOCK
TIMESTAMP 2014 4 28 19 52 41
SYMPIN 0 -480 Input INI
SYMPIN 0 -256 Input B(3:0)
SYMPIN 0 -32 Input Q(3:0)
SYMPIN 384 -480 Output S3
SYMPIN 384 -416 Output R3
SYMPIN 384 -352 Output S2
SYMPIN 384 -288 Output R2
SYMPIN 384 -224 Output S1
SYMPIN 384 -160 Output R1
SYMPIN 384 -96 Output S0
SYMPIN 384 -32 Output R0
BEGIN DISPLAY 192 -520 ATTR SymbolName
    ALIGNMENT BCENTER
    FONT 56 "Arial"
END DISPLAY
BEGIN DISPLAY 72 -480 PIN INI ATTR PinName
    FONT 24 "Arial"
END DISPLAY
BEGIN DISPLAY 72 -256 PIN B(3:0) ATTR PinName
    FONT 24 "Arial"
END DISPLAY
BEGIN DISPLAY 72 -32 PIN Q(3:0) ATTR PinName
    FONT 24 "Arial"
END DISPLAY
BEGIN DISPLAY 312 -480 PIN S3 ATTR PinName
    ALIGNMENT RIGHT
    FONT 24 "Arial"
END DISPLAY
BEGIN DISPLAY 312 -416 PIN R3 ATTR PinName
    ALIGNMENT RIGHT
    FONT 24 "Arial"
END DISPLAY
BEGIN DISPLAY 312 -352 PIN S2 ATTR PinName
    ALIGNMENT RIGHT
    FONT 24 "Arial"
END DISPLAY
BEGIN DISPLAY 312 -288 PIN R2 ATTR PinName
    ALIGNMENT RIGHT
    FONT 24 "Arial"
END DISPLAY
BEGIN DISPLAY 312 -224 PIN S1 ATTR PinName
    ALIGNMENT RIGHT
    FONT 24 "Arial"
END DISPLAY
BEGIN DISPLAY 312 -160 PIN R1 ATTR PinName
    ALIGNMENT RIGHT
    FONT 24 "Arial"
END DISPLAY
BEGIN DISPLAY 312 -96 PIN S0 ATTR PinName
    ALIGNMENT RIGHT
    FONT 24 "Arial"
END DISPLAY
BEGIN DISPLAY 312 -32 PIN R0 ATTR PinName
    ALIGNMENT RIGHT
    FONT 24 "Arial"
END DISPLAY
RECTANGLE N 64 -512 320 0 
LINE N 64 -480 0 -480 
RECTANGLE N 0 -268 64 -244 
LINE N 64 -256 0 -256 
RECTANGLE N 0 -44 64 -20 
LINE N 64 -32 0 -32 
LINE N 320 -480 384 -480 
LINE N 320 -416 384 -416 
LINE N 320 -352 384 -352 
LINE N 320 -288 384 -288 
LINE N 320 -224 384 -224 
LINE N 320 -160 384 -160 
LINE N 320 -96 384 -96 
LINE N 320 -32 384 -32 
END SYMBOL
