VERSION 5
BEGIN SYMBOL 
SYMBOLTYPE BLOCK
TIMESTAMP 2014 4 28 19 49 44
SYMPIN 0 -160 Input CLK
SYMPIN 0 -32 Input B(3:0)
SYMPIN 0 -96 Input INI
SYMPIN 384 -160 Output Q(3:0)
BEGIN DISPLAY 192 -200 ATTR SymbolName
    ALIGNMENT BCENTER
    FONT 56 "Arial"
END DISPLAY
BEGIN DISPLAY 72 -160 PIN CLK ATTR PinName
    FONT 24 "Arial"
END DISPLAY
BEGIN DISPLAY 72 -32 PIN B(3:0) ATTR PinName
    FONT 24 "Arial"
END DISPLAY
BEGIN DISPLAY 72 -96 PIN INI ATTR PinName
    FONT 24 "Arial"
END DISPLAY
BEGIN DISPLAY 312 -160 PIN Q(3:0) ATTR PinName
    ALIGNMENT RIGHT
    FONT 24 "Arial"
END DISPLAY
RECTANGLE N 64 -192 320 0 
LINE N 64 -160 0 -160 
LINE N 64 -96 0 -96 
RECTANGLE N 0 -44 64 -20 
LINE N 64 -32 0 -32 
RECTANGLE N 320 -172 384 -148 
LINE N 320 -160 384 -160 
END SYMBOL
